{
  "version": 1,
  "tags": [
    {
      "name": "rlx-app-admin",
      "properties": [
        {
          "name": "authenticated",
          "type": "Boolean",
          "description": "Is the user authenticated?"
        },
        {
          "name": "changesCount",
          "type": "Number",
          "description": "Number of changes currently present"
        },
        {
          "name": "styles",
          "type": "Object",
          "description": "Custom styles to include"
        }
      ],
      "events": [
        {
          "name": "publish",
          "description": "Fire app-wide publish event"
        },
        {
          "name": "revert-all",
          "description": "Revert all changes"
        },
        {
          "name": "login",
          "description": "Login button was clicked"
        },
        {
          "name": "logout",
          "description": "Log user out"
        }
      ],
      "slots": [],
      "cssProperties": []
    },
    {
      "name": "rlx-app-login",
      "properties": [],
      "events": [],
      "slots": [],
      "cssProperties": []
    },
    {
      "name": "rlx-doc-edit",
      "properties": [
        {
          "name": "delete-text",
          "type": "String",
          "description": "Text for delete button"
        }
      ],
      "events": [],
      "slots": [],
      "cssProperties": []
    },
    {
      "name": "rlx-img",
      "properties": [],
      "events": [],
      "slots": [],
      "cssProperties": []
    },

    {
      "name": "rlx-rte",
      "properties": [
        {
          "name": "content",
          "type": "String",
          "description": "HTML content for the field"
        },
        {
          "name": "styles",
          "type": "Object",
          "description": "Styles to appy to this component"
        }
      ],
      "events": [
        {
          "name": "change",
          "description": "Fires when the value changes"
        }
      ],
      "slots": [],
      "cssProperties": []
    }
  ]
}